[2011-08-13 10:44:56] [127.0.0.1] [2228] 0 C:\xampp\htdocs\www.usuariodigital.com.br-v2011-07-16\kernel\kernel.php line 131
[2011-08-13 10:44:57] [127.0.0.1] [2228] 0 C:\xampp\htdocs\www.usuariodigital.com.br-v2011-07-16\kernel\kernel.php line 119
[2011-08-13 10:44:57] [127.0.0.1] [2228] 1 C:\xampp\htdocs\www.usuariodigital.com.br-v2011-07-16\kernel\source.php line 29
[2011-08-13 10:44:57] [127.0.0.1] [2228] 2 C:\xampp\htdocs\www.usuariodigital.com.br-v2011-07-16\kernel\source.php line 90
[2011-08-13 10:44:57] [127.0.0.1] [2228] 3 C:\xampp\htdocs\www.usuariodigital.com.br-v2011-07-16\kernel\error.php line 14
[2011-08-13 10:45:02] [127.0.0.1] [2228] 0 C:\xampp\htdocs\www.usuariodigital.com.br-v2011-07-16\kernel\kernel.php line 119
[2011-08-13 10:45:02] [127.0.0.1] [2228] 1 C:\xampp\htdocs\www.usuariodigital.com.br-v2011-07-16\kernel\source.php line 29
[2011-08-13 10:45:02] [127.0.0.1] [2228] 2 C:\xampp\htdocs\www.usuariodigital.com.br-v2011-07-16\kernel\source.php line 57
[2011-08-13 10:45:02] [127.0.0.1] [2228] 3 C:\xampp\htdocs\www.usuariodigital.com.br-v2011-07-16\kernel\compose.php line 136
[2011-08-13 10:45:02] [127.0.0.1] [2228] 4 C:\xampp\htdocs\www.usuariodigital.com.br-v2011-07-16\application\admin.php line 8
[2011-08-13 10:45:02] [127.0.0.1] [2228] 5 C:\xampp\htdocs\www.usuariodigital.com.br-v2011-07-16\kernel\error.php line 14
